{
  "plan": [
    {
      "time": 1505928733,
      "meals": [
        {
          "title": "breakfast",
          "nutrition": [
            {
              "nutrition_id": null,
              "name": "Free Meal",
              "unit": null,
              "calories": null
            }
          ],
          "supplements": [
            {
              "supplement_id": 1,
              "name": "BBCA intra/post",
              "unit": "10 gm"
            }
          ]
        },
        {
          "title": "lunch",
          "nutrition": [
            {
              "nutrition_id": 1,
              "name": "BUTTER,WITH SALT",
              "unit": "2 Scoops",
              "calories": 50
            },
            {
              "nutrition_id": 1,
              "name": "BUTTER,WITH SALT",
              "unit": "2 Scoops",
              "calories": 50
            }
          ],
          "supplements": [
            {
              "supplement_id": 1,
              "name": "BBCA intra/post",
              "unit": "10 gm"
            }
          ]
        }
      ]
    },
    {
      "time": 1505766733,
      "meals": [
        {
          "title": "breakfast",
          "nutrition": [
            {
              "nutrition_id": null,
              "name": "Free Meal",
              "unit": null,
              "calories": null
            }
          ],
          "supplements": [
            {
              "supplement_id": 1,
              "name": "BBCA intra/post",
              "unit": "10 gm"
            }
          ]
        },
        {
          "title": "lunch",
          "nutrition": [
            {
              "nutrition_id": 1,
              "name": "BUTTER,WITH SALT",
              "unit": "2 Scoops",
              "calories": 50
            },
            {
              "nutrition_id": 1,
              "name": "BUTTER,WITH SALT",
              "unit": "2 Scoops",
              "calories": 50
            }
          ],
          "supplements": [
            {
              "supplement_id": 1,
              "name": "BBCA intra/post",
              "unit": "10 gm"
            }
          ]
        }
      ]
    },
    {
      "time": 1505856733,
      "meals": [
        {
          "title": "breakfast",
          "nutrition": [
            {
              "nutrition_id": 1,
              "name": "BUTTER,WITH SALT",
              "unit": "2 Scoops",
              "calories": 50
            },
            {
              "nutrition_id": 1,
              "name": "BUTTER,WITH SALT",
              "unit": "2 Scoops",
              "calories": 50
            }
          ],
          "supplements": [
            {
              "supplement_id": 1,
              "name": "BBCA intra/post",
              "unit": "10 gm"
            }
          ]
        },
        {
          "title": "lunch",
          "nutrition": [
            {
              "nutrition_id": 1,
              "name": "BUTTER,WITH SALT",
              "unit": "2 Scoops",
              "calories": 50
            },
            {
              "nutrition_id": 1,
              "name": "BUTTER,WITH SALT",
              "unit": "2 Scoops",
              "calories": 50
            }
          ],
          "supplements": [
            {
              "supplement_id": 1,
              "name": "BBCA intra/post",
              "unit": "10 gm"
            }
          ]
        }
      ]
    },
    {
      "time": 1505943133,
      "meals": [
        {
          "title": "breakfast",
          "nutrition": [
            {
              "nutrition_id": 1,
              "name": "BUTTER,WITH SALT",
              "unit": "2 Scoops",
              "calories": 50
            }
          ],
          "supplements": [
            {
              "supplement_id": 1,
              "name": "BBCA intra/post",
              "unit": "10 gm"
            }
          ]
        },
        {
          "title": "lunch",
          "nutrition": [
            {
              "nutrition_id": 1,
              "name": "BUTTER,WITH SALT",
              "unit": "2 Scoops",
              "calories": 50
            },
            {
              "nutrition_id": 1,
              "name": "BUTTER,WITH SALT",
              "unit": "2 Scoops",
              "calories": 50
            }
          ],
          "supplements": [
            {
              "supplement_id": 1,
              "name": "BBCA intra/post",
              "unit": "10 gm"
            }
          ]
        }
      ]
    },
    {
      "time": 1505946733,
      "meals": [
        {
          "title": "breakfast",
          "nutrition": [
            {
              "nutrition_id": 1,
              "name": "BUTTER,WITH SALT",
              "unit": "2 Scoops",
              "calories": 50
            },
            {
              "nutrition_id": 1,
              "name": "BUTTER,WITH SALT",
              "unit": "2 Scoops",
              "calories": 50
            }
          ],
          "supplements": [
            {
              "supplement_id": 1,
              "name": "BBCA intra/post",
              "unit": "10 gm"
            }
          ]
        },
        {
          "title": "lunch",
          "nutrition": [
            {
              "nutrition_id": 1,
              "name": "BUTTER,WITH SALT",
              "unit": "2 Scoops",
              "calories": 50
            },
            {
              "nutrition_id": 1,
              "name": "BUTTER,WITH SALT",
              "unit": "2 Scoops",
              "calories": 50
            }
          ],
          "supplements": [
            {
              "supplement_id": 1,
              "name": "BBCA intra/post",
              "unit": "10 gm"
            }
          ]
        }
      ]
    },
    {
      "time": 1505928733,
      "meals": [
        {
          "title": "breakfast",
          "nutrition": [
            {
              "nutrition_id": null,
              "name": "Free Meal",
              "unit": null,
              "calories": null
            }
          ],
          "supplements": [
            {
              "supplement_id": 1,
              "name": "BBCA intra/post",
              "unit": "10 gm"
            }
          ]
        },
        {
          "title": "lunch",
          "nutrition": [
            {
              "nutrition_id": 1,
              "name": "BUTTER,WITH SALT",
              "unit": "2 Scoops",
              "calories": 50
            },
            {
              "nutrition_id": 1,
              "name": "BUTTER,WITH SALT",
              "unit": "2 Scoops",
              "calories": 50
            }
          ],
          "supplements": [
            {
              "supplement_id": 1,
              "name": "BBCA intra/post",
              "unit": "10 gm"
            }
          ]
        }
      ]
    }
  ],
  "data": {
    "recommendation": "Drink A lot of water",
    "title": "Cutting Plan Based On 1800 kCal",
    "from": 1505161933,
    "to": 1505680333
  }
}